Percentage served,Time in ms
0,13.125
1,163.448
2,175.105
3,176.198
4,177.333
5,178.269
6,179.336
7,180.507
8,181.249
9,182.361
10,184.131
11,185.505
12,186.721
13,187.658
14,188.431
15,189.247
16,189.750
17,190.549
18,191.183
19,191.699
20,191.983
21,192.317
22,192.943
23,193.502
24,193.809
25,194.244
26,194.522
27,195.051
28,195.318
29,195.843
30,196.154
31,196.532
32,196.844
33,197.302
34,197.768
35,198.307
36,199.052
37,200.283
38,201.262
39,202.622
40,204.517
41,207.328
42,210.993
43,212.079
44,213.807
45,214.723
46,215.453
47,216.308
48,216.883
49,217.353
50,218.209
51,219.371
52,220.341
53,221.895
54,222.700
55,223.767
56,224.727
57,225.920
58,226.605
59,227.673
60,228.442
61,228.979
62,229.974
63,230.751
64,231.596
65,232.161
66,232.706
67,233.334
68,233.736
69,234.200
70,234.566
71,234.908
72,235.253
73,235.526
74,235.985
75,236.303
76,236.551
77,236.902
78,237.325
79,237.758
80,238.059
81,238.415
82,238.955
83,239.585
84,240.232
85,241.153
86,242.399
87,243.361
88,247.849
89,250.180
90,252.842
91,255.105
92,256.454
93,257.994
94,259.319
95,261.620
96,268.436
97,272.226
98,275.180
99,283.428
100,316.375
